-------------------------------------------------------------------------------
Test set: com.jonny.employe.utils.UtilBase64ImplTest
-------------------------------------------------------------------------------
Tests run: 1, Failures: 0, Errors: 0, Skipped: 0, Time elapsed: 14.739 s - in com.jonny.employe.utils.UtilBase64ImplTest
